{
  "page": 1,
  "per_page": 4,
  "photos": [
    {
      "id": 2607544,
      "width": 6000,
      "height": 4000,
      "url": "https://www.pexels.com/photo/medium-short-coated-white-dog-on-white-textile-2607544/",
      "photographer": "Simona Kidrič",
      "photographer_url": "https://www.pexels.com/@simonakidric",
      "photographer_id": 1348455,
      "avg_color": "#B3B9C0",
      "src": {
        "original": "https://images.pexels.com/photos/2607544/pexels-photo-2607544.jpeg",
        "large2x": "https://images.pexels.com/photos/2607544/pexels-photo-2607544.jpeg?auto=compress\u0026cs=tinysrgb\u0026dpr=2\u0026h=650\u0026w=940",
        "large": "https://images.pexels.com/photos/2607544/pexels-photo-2607544.jpeg?auto=compress\u0026cs=tinysrgb\u0026h=650\u0026w=940",
        "medium": "https://images.pexels.com/photos/2607544/pexels-photo-2607544.jpeg?auto=compress\u0026cs=tinysrgb\u0026h=350",
        "small": "https://images.pexels.com/photos/2607544/pexels-photo-2607544.jpeg?auto=compress\u0026cs=tinysrgb\u0026h=130",
        "portrait": "https://images.pexels.com/photos/2607544/pexels-photo-2607544.jpeg?auto=compress\u0026cs=tinysrgb\u0026fit=crop\u0026h=1200\u0026w=800",
        "landscape": "https://images.pexels.com/photos/2607544/pexels-photo-2607544.jpeg?auto=compress\u0026cs=tinysrgb\u0026fit=crop\u0026h=627\u0026w=1200",
        "tiny": "https://images.pexels.com/photos/2607544/pexels-photo-2607544.jpeg?auto=compress\u0026cs=tinysrgb\u0026dpr=1\u0026fit=crop\u0026h=200\u0026w=280"
      },
      "liked": false,
      "alt": "Medium Short-coated White Dog on White Textile"
    },
    {
      "id": 895259,
      "width": 3648,
      "height": 5052,
      "url": "https://www.pexels.com/photo/soft-focus-photo-of-dachshund-895259/",
      "photographer": "Dominika Roseclay",
      "photographer_url": "https://www.pexels.com/@punchbrandstock",
      "photographer_id": 215243,
      "avg_color": "#C3B7AF",
      "src": {
        "original": "https://images.pexels.com/photos/895259/pexels-photo-895259.jpeg",
        "large2x": "https://images.pexels.com/photos/895259/pexels-photo-895259.jpeg?auto=compress\u0026cs=tinysrgb\u0026dpr=2\u0026h=650\u0026w=940",
        "large": "https://images.pexels.com/photos/895259/pexels-photo-895259.jpeg?auto=compress\u0026cs=tinysrgb\u0026h=650\u0026w=940",
        "medium": "https://images.pexels.com/photos/895259/pexels-photo-895259.jpeg?auto=compress\u0026cs=tinysrgb\u0026h=350",
        "small": "https://images.pexels.com/photos/895259/pexels-photo-895259.jpeg?auto=compress\u0026cs=tinysrgb\u0026h=130",
        "portrait": "https://images.pexels.com/photos/895259/pexels-photo-895259.jpeg?auto=compress\u0026cs=tinysrgb\u0026fit=crop\u0026h=1200\u0026w=800",
        "landscape": "https://images.pexels.com/photos/895259/pexels-photo-895259.jpeg?auto=compress\u0026cs=tinysrgb\u0026fit=crop\u0026h=627\u0026w=1200",
        "tiny": "https://images.pexels.com/photos/895259/pexels-photo-895259.jpeg?auto=compress\u0026cs=tinysrgb\u0026dpr=1\u0026fit=crop\u0026h=200\u0026w=280"
      },
      "liked": false,
      "alt": "Soft Focus Photo of Dachshund"
    },
    {
      "id": 3196887,
      "width": 4000,
      "height": 6000,
      "url": "https://www.pexels.com/photo/siberian-husky-doing-a-wink-expression-3196887/",
      "photographer": "Julissa Helmuth",
      "photographer_url": "https://www.pexels.com/@jhelmuth",
      "photographer_id": 1473581,
      "avg_color": "#3D403B",
      "src": {
        "original": "https://images.pexels.com/photos/3196887/pexels-photo-3196887.jpeg",
        "large2x": "https://images.pexels.com/photos/3196887/pexels-photo-3196887.jpeg?auto=compress\u0026cs=tinysrgb\u0026dpr=2\u0026h=650\u0026w=940",
        "large": "https://images.pexels.com/photos/3196887/pexels-photo-3196887.jpeg?auto=compress\u0026cs=tinysrgb\u0026h=650\u0026w=940",
        "medium": "https://images.pexels.com/photos/3196887/pexels-photo-3196887.jpeg?auto=compress\u0026cs=tinysrgb\u0026h=350",
        "small": "https://images.pexels.com/photos/3196887/pexels-photo-3196887.jpeg?auto=compress\u0026cs=tinysrgb\u0026h=130",
        "portrait": "https://images.pexels.com/photos/3196887/pexels-photo-3196887.jpeg?auto=compress\u0026cs=tinysrgb\u0026fit=crop\u0026h=1200\u0026w=800",
        "landscape": "https://images.pexels.com/photos/3196887/pexels-photo-3196887.jpeg?auto=compress\u0026cs=tinysrgb\u0026fit=crop\u0026h=627\u0026w=1200",
        "tiny": "https://images.pexels.com/photos/3196887/pexels-photo-3196887.jpeg?auto=compress\u0026cs=tinysrgb\u0026dpr=1\u0026fit=crop\u0026h=200\u0026w=280"
      },
      "liked": false,
      "alt": "Siberian Husky Doing a Wink Expression "
    },
    {
      "id": 3299906,
      "width": 7360,
      "height": 4912,
      "url": "https://www.pexels.com/photo/four-dogs-on-pink-background-3299906/",
      "photographer": "Goochie Poochie Grooming",
      "photographer_url": "https://www.pexels.com/@goochie-poochie",
      "photographer_id": 2574398,
      "avg_color": "#C05269",
      "src": {
        "original": "https://images.pexels.com/photos/3299906/pexels-photo-3299906.jpeg",
        "large2x": "https://images.pexels.com/photos/3299906/pexels-photo-3299906.jpeg?auto=compress\u0026cs=tinysrgb\u0026dpr=2\u0026h=650\u0026w=940",
        "large": "https://images.pexels.com/photos/3299906/pexels-photo-3299906.jpeg?auto=compress\u0026cs=tinysrgb\u0026h=650\u0026w=940",
        "medium": "https://images.pexels.com/photos/3299906/pexels-photo-3299906.jpeg?auto=compress\u0026cs=tinysrgb\u0026h=350",
        "small": "https://images.pexels.com/photos/3299906/pexels-photo-3299906.jpeg?auto=compress\u0026cs=tinysrgb\u0026h=130",
        "portrait": "https://images.pexels.com/photos/3299906/pexels-photo-3299906.jpeg?auto=compress\u0026cs=tinysrgb\u0026fit=crop\u0026h=1200\u0026w=800",
        "landscape": "https://images.pexels.com/photos/3299906/pexels-photo-3299906.jpeg?auto=compress\u0026cs=tinysrgb\u0026fit=crop\u0026h=627\u0026w=1200",
        "tiny": "https://images.pexels.com/photos/3299906/pexels-photo-3299906.jpeg?auto=compress\u0026cs=tinysrgb\u0026dpr=1\u0026fit=crop\u0026h=200\u0026w=280"
      },
      "liked": false,
      "alt": "Four Dogs on Pink Background"
    }
  ],
  "total_results": 8000,
  "next_page": "https://api.pexels.com/v1/search/?page=2\u0026per_page=4\u0026query=dogs"
}
